{
  "annotations": {
    "list": [
      {
        "builtIn": 1,
        "datasource": "-- Grafana --",
        "enable": true,
        "hide": true,
        "iconColor": "rgba(0, 211, 255, 1)",
        "name": "Annotations & Alerts",
        "type": "dashboard"
      }
    ]
  },
  "description": "Dashboard that shows basic usage of the CIO apollo-prometheus integrations.",
  "editable": false,
  "gnetId": 11359,
  "graphTooltip": 0,
  "id": 4,
  "links": [],
  "panels": [
    {
      "collapsed": false,
      "datasource": "apollo-prometheus",
      "gridPos": {
        "h": 1,
        "w": 24,
        "x": 0,
        "y": 0
      },
      "id": 14,
      "panels": [],
      "title": "Cluster Health",
      "type": "row"
    },
    {
      "aliasColors": {},
      "bars": false,
      "cacheTimeout": null,
      "dashLength": 10,
      "dashes": false,
      "datasource": "apollo-prometheus",
      "description": "Shows the number of nodes that are healthy, cordoned manually, or in maintenance mode (has an error that needs to be addressed)",
      "fill": 1,
      "fillGradient": 0,
      "gridPos": {
        "h": 7,
        "w": 7,
        "x": 0,
        "y": 1
      },
      "hiddenSeries": false,
      "id": 8,
      "legend": {
        "avg": false,
        "current": false,
        "max": false,
        "min": false,
        "show": true,
        "total": false,
        "values": false
      },
      "lines": true,
      "linewidth": 1,
      "links": [],
      "nullPointMode": "null",
      "options": {
        "dataLinks": []
      },
      "percentage": false,
      "pluginVersion": "6.4.4",
      "pointradius": 2,
      "points": false,
      "renderer": "flot",
      "seriesOverrides": [],
      "spaceLength": 10,
      "stack": false,
      "steppedLine": false,
      "targets": [
        {
          "expr": "cio_cluster_nodes_count",
          "legendFormat": "Total",
          "refId": "A"
        },
        {
          "expr": "cio_cluster_nodes_online",
          "legendFormat": "Healthy",
          "refId": "B"
        },
        {
          "expr": "cio_cluster_nodes_cordoned",
          "legendFormat": "Cordoned",
          "refId": "C"
        },
        {
          "expr": "cio_cluster_nodes_maintenance",
          "legendFormat": "Unhealthy",
          "refId": "D"
        }
      ],
      "thresholds": [],
      "timeFrom": null,
      "timeRegions": [],
      "timeShift": null,
      "title": "Node Health",
      "tooltip": {
        "shared": true,
        "sort": 0,
        "value_type": "individual"
      },
      "type": "graph",
      "xaxis": {
        "buckets": null,
        "mode": "time",
        "name": null,
        "show": true,
        "values": []
      },
      "yaxes": [
        {
          "format": "short",
          "label": null,
          "logBase": 1,
          "max": null,
          "min": null,
          "show": true
        },
        {
          "format": "short",
          "label": null,
          "logBase": 1,
          "max": null,
          "min": null,
          "show": true
        }
      ],
      "yaxis": {
        "align": false,
        "alignLevel": null
      }
    },
    {
      "aliasColors": {},
      "bars": false,
      "dashLength": 10,
      "dashes": false,
      "datasource": "apollo-prometheus",
      "description": "Counts of drives that are healthy, unhealthy, and available for adding to CIO via cioctl drive commands.",
      "fill": 1,
      "fillGradient": 0,
      "gridPos": {
        "h": 7,
        "w": 7,
        "x": 7,
        "y": 1
      },
      "hiddenSeries": false,
      "id": 12,
      "legend": {
        "avg": false,
        "current": false,
        "max": false,
        "min": false,
        "show": true,
        "total": false,
        "values": false
      },
      "lines": true,
      "linewidth": 1,
      "nullPointMode": "null",
      "options": {
        "dataLinks": []
      },
      "percentage": false,
      "pointradius": 2,
      "points": false,
      "renderer": "flot",
      "seriesOverrides": [],
      "spaceLength": 10,
      "stack": false,
      "steppedLine": false,
      "targets": [
        {
          "expr": "cio_cluster_drives_online",
          "legendFormat": "Drives",
          "refId": "A"
        },
        {
          "expr": "cio_cluster_drives_faulty",
          "legendFormat": "Faulty",
          "refId": "C"
        }
      ],
      "thresholds": [],
      "timeFrom": null,
      "timeRegions": [],
      "timeShift": null,
      "title": "Drive Health",
      "tooltip": {
        "shared": true,
        "sort": 0,
        "value_type": "individual"
      },
      "type": "graph",
      "xaxis": {
        "buckets": null,
        "mode": "time",
        "name": null,
        "show": true,
        "values": []
      },
      "yaxes": [
        {
          "format": "short",
          "label": null,
          "logBase": 1,
          "max": null,
          "min": null,
          "show": true
        },
        {
          "format": "short",
          "label": null,
          "logBase": 1,
          "max": null,
          "min": null,
          "show": true
        }
      ],
      "yaxis": {
        "align": false,
        "alignLevel": null
      }
    },
    {
      "aliasColors": {},
      "bars": false,
      "dashLength": 10,
      "dashes": false,
      "datasource": "apollo-prometheus",
      "description": "This panel shows what portions of requests to the API are returning successfully.",
      "fill": 1,
      "fillGradient": 0,
      "gridPos": {
        "h": 7,
        "w": 10,
        "x": 14,
        "y": 1
      },
      "hiddenSeries": false,
      "id": 6,
      "legend": {
        "alignAsTable": false,
        "avg": false,
        "current": false,
        "hideZero": false,
        "max": false,
        "min": false,
        "rightSide": true,
        "show": true,
        "total": false,
        "values": false
      },
      "lines": true,
      "linewidth": 1,
      "nullPointMode": "connected",
      "options": {
        "dataLinks": []
      },
      "percentage": true,
      "pluginVersion": "6.4.4",
      "pointradius": 2,
      "points": false,
      "renderer": "flot",
      "seriesOverrides": [],
      "spaceLength": 10,
      "stack": true,
      "steppedLine": false,
      "targets": [
        {
          "expr": "cio_api_calls_ok",
          "legendFormat": "200 OK",
          "refId": "B"
        },
        {
          "expr": "io_api_calls_internal_server_error",
          "legendFormat": "500 ISE",
          "refId": "D"
        },
        {
          "expr": "cio_api_calls_bad_request",
          "legendFormat": "400 Bad Request",
          "refId": "E"
        },
        {
          "expr": "cio_api_calls_not_found",
          "legendFormat": "404 Not Found",
          "refId": "F"
        },
        {
          "expr": "cio_api_calls_conflict",
          "legendFormat": "409 Conflict",
          "refId": "G"
        }
      ],
      "thresholds": [],
      "timeFrom": null,
      "timeRegions": [],
      "timeShift": null,
      "title": "API Responses",
      "tooltip": {
        "shared": true,
        "sort": 0,
        "value_type": "individual"
      },
      "type": "graph",
      "xaxis": {
        "buckets": null,
        "mode": "time",
        "name": null,
        "show": true,
        "values": []
      },
      "yaxes": [
        {
          "decimals": 0,
          "format": "short",
          "label": null,
          "logBase": 1,
          "max": "100",
          "min": "0",
          "show": true
        },
        {
          "decimals": -7,
          "format": "short",
          "label": null,
          "logBase": 1,
          "max": null,
          "min": null,
          "show": true
        }
      ],
      "yaxis": {
        "align": false,
        "alignLevel": null
      }
    },
    {
      "collapsed": false,
      "datasource": "apollo-prometheus",
      "gridPos": {
        "h": 1,
        "w": 24,
        "x": 0,
        "y": 8
      },
      "id": 2,
      "panels": [],
      "title": "CIO Metrics",
      "type": "row"
    },
    {
      "datasource": "apollo-prometheus",
      "description": "Percentage utilization of CIO Cluster Resources. This is resources that have been allocated for use (provisioned) and in use. The amount of space free is also available. All units are in bytes.",
      "gridPos": {
        "h": 6,
        "w": 24,
        "x": 0,
        "y": 9
      },
      "id": 4,
      "options": {
        "fieldOptions": {
          "calcs": [
            "lastNotNull"
          ],
          "defaults": {
            "mappings": [],
            "max": 100,
            "min": 0,
            "thresholds": [
              {
                "color": "green",
                "value": null
              },
              {
                "color": "red",
                "value": 80
              }
            ],
            "unit": "percent"
          },
          "override": {},
          "values": false
        },
        "orientation": "auto",
        "showThresholdLabels": false,
        "showThresholdMarkers": true
      },
      "pluginVersion": "6.5.2",
      "targets": [
        {
          "expr": "cio_cluster_capacity_provisioned/cio_cluster_capacity_total*100",
          "legendFormat": "Capacity Provisioned",
          "refId": "A"
        },
        {
          "expr": "cio_cluster_capacity_used/cio_cluster_capacity_total*100",
          "legendFormat": "Capacity Used",
          "refId": "D"
        },
        {
          "expr": "cio_cluster_bw_provisioned/cio_cluster_bw_total*100",
          "legendFormat": "Bandwidth Provisioned",
          "refId": "B"
        },
        {
          "expr": "cio_cluster_bw_used/cio_cluster_bw_total*100",
          "legendFormat": "Bandwidth Used",
          "refId": "E"
        },
        {
          "expr": "cio_cluster_iops_provisioned/cio_cluster_iops_total*100",
          "legendFormat": "IOPS Provisioned",
          "refId": "C"
        },
        {
          "expr": "cio_cluster_iops_used/cio_cluster_iops_total*100",
          "legendFormat": "IOPS Used",
          "refId": "F"
        }
      ],
      "timeFrom": null,
      "timeShift": null,
      "title": "Resource Utilization",
      "type": "gauge"
    },
    {
      "aliasColors": {},
      "bars": false,
      "dashLength": 10,
      "dashes": false,
      "datasource": "apollo-prometheus",
      "description": "Sample of monitoring usage for a given application",
      "fill": 1,
      "fillGradient": 0,
      "gridPos": {
        "h": 7,
        "w": 9,
        "x": 0,
        "y": 15
      },
      "hiddenSeries": false,
      "id": 10,
      "legend": {
        "avg": false,
        "current": false,
        "max": false,
        "min": false,
        "show": true,
        "total": false,
        "values": false
      },
      "lines": true,
      "linewidth": 1,
      "nullPointMode": "null",
      "options": {
        "dataLinks": []
      },
      "percentage": false,
      "pointradius": 2,
      "points": false,
      "renderer": "flot",
      "seriesOverrides": [],
      "spaceLength": 10,
      "stack": false,
      "steppedLine": false,
      "targets": [
        {
          "expr": "cio_volume_vd0_writes_completed",
          "hide": false,
          "legendFormat": "Writes Completed",
          "refId": "A"
        },
        {
          "expr": "cio_volume_vd0_current_ios",
          "hide": true,
          "legendFormat": "IOs",
          "refId": "B"
        }
      ],
      "thresholds": [],
      "timeFrom": null,
      "timeRegions": [],
      "timeShift": null,
      "title": "MongoDB (vd0) Usage",
      "tooltip": {
        "shared": true,
        "sort": 0,
        "value_type": "individual"
      },
      "type": "graph",
      "xaxis": {
        "buckets": null,
        "mode": "time",
        "name": null,
        "show": true,
        "values": []
      },
      "yaxes": [
        {
          "format": "short",
          "label": null,
          "logBase": 1,
          "max": null,
          "min": null,
          "show": true
        },
        {
          "format": "short",
          "label": null,
          "logBase": 1,
          "max": null,
          "min": null,
          "show": true
        }
      ],
      "yaxis": {
        "align": false,
        "alignLevel": null
      }
    }
  ],
  "refresh": "10s",
  "schemaVersion": 21,
  "style": "dark",
  "tags": [
    "swarm",
    "storidge"
  ],
  "templating": {
    "list": []
  },
  "time": {
    "from": "now-30m",
    "to": "now"
  },
  "timepicker": {
    "refresh_intervals": [
      "5s",
      "10s",
      "30s",
      "1m",
      "5m",
      "15m",
      "30m",
      "1h",
      "2h",
      "1d"
    ]
  },
  "timezone": "browser",
  "title": "apollo Data Storidge",
  "uid": "7WOXOM1Wz",
  "version": 1
}